<?xml version="1.0" encoding="UTF-8"?>
<!DOCTYPE svg PUBLIC "-//W3C//DTD SVG 1.1//EN" "http://www.w3.org/Graphics/SVG/1.1/DTD/svg11.dtd">
<!-- Creator: CorelDRAW 2019 (64-Bit) -->
<svg xmlns="http://www.w3.org/2000/svg" xml:space="preserve" width="3.33333in" height="3.33333in" version="1.1" style="shape-rendering:geometricPrecision; text-rendering:geometricPrecision; image-rendering:optimizeQuality; fill-rule:evenodd; clip-rule:evenodd"
viewBox="0 0 3333.33 3333.33"
 xmlns:xlink="http://www.w3.org/1999/xlink"
 xmlns:xodm="http://www.corel.com/coreldraw/odm/2003">
 <defs>
  <style type="text/css">
   <![CDATA[
    .fil0 {fill:#FEFEFE}
   ]]>
  </style>
 </defs>
 <g id="Layer_x0020_1">
  <metadata id="CorelCorpID_0Corel-Layer"/>
  <g id="_2175809145008">
   <path class="fil0" d="M701.74 0l360.06 0c38.75,0 70.17,29.9 70.17,66.76l-0.01 339.08c0.01,36.87 -31.41,66.76 -70.15,66.76l-360.07 -0c-38.73,0 -70.15,-29.89 -70.15,-66.76l-0.01 -339.09c0.01,-36.86 31.43,-66.76 70.17,-66.76l-0.01 -0zm1262.96 1201.72l360.06 0c38.74,0.01 70.16,29.91 70.16,66.77l0 269.89c-1.3,0.85 -2.63,1.72 -3.99,2.59 0,-31.39 -2.16,-42.43 -12.2,-65.66 -20.95,-48.39 -19.6,-38.5 -39.45,-46.78 -0.34,-13.47 5.14,-2.01 -6,-15.76 -6.3,-7.77 -9.31,-8.25 -15.87,-12.65 -10.06,-6.75 -22.21,-11.31 -29.91,-20.78 -104.52,-30.36 -187.61,-12.96 -236.3,56.22 -9.48,-16.99 -11.28,-27.87 -19.56,-44.66 -8.87,-18 -14.17,-30.65 -26.56,-44.98 -17.28,-19.98 -60.44,-45 -89.96,-54.97 -6.93,-2.34 -13.79,-4.22 -20.59,-5.68l0 -16.78c0,-36.86 31.43,-66.76 70.17,-66.76l0 -0.01zm-260.59 0.8c33.6,4.96 59.33,32.61 59.33,65.97l0 36.92c-24.08,12.87 -44.36,29.39 -59.37,45.82l0.04 -148.72zm-385.55 470.35c-31.7,-6.41 -55.5,-33.21 -55.5,-65.29l-0.01 -339.09c0.01,-31.83 23.44,-58.47 54.79,-65.14 -0.28,147.12 0.16,320.62 0.71,469.52zm-616.82 -471.14l360.06 0c38.75,0.01 70.17,29.91 70.17,66.77l-0.01 339.08c0.01,36.87 -31.41,66.76 -70.15,66.76l-360.07 0c-38.73,-0 -70.15,-29.89 -70.15,-66.76l-0.01 -339.09c0.01,-36.86 31.43,-66.76 70.17,-66.76l-0.01 -0.01zm1259.26 -597.34l360.06 0c38.74,0 70.16,29.9 70.16,66.77l0 339.08c0,36.87 -31.42,66.76 -70.16,66.76l-360.06 -0c-38.74,0 -70.16,-29.89 -70.16,-66.76l0 -339.09c0,-36.86 31.42,-66.76 70.16,-66.76l0 -0zm-631.47 0l360.06 0c38.74,0 70.16,29.9 70.16,66.77l0 339.08c-0,32.11 -23.85,58.94 -55.61,65.32l0.04 -146.06c1.9,-257.41 -335.65,-264.11 -381.27,-52.49 -2.49,11.54 -3.87,89.29 -4.56,199.15 -33.42,-5.09 -58.97,-32.67 -58.97,-65.91l-0.01 -339.09c0.01,-36.86 31.43,-66.76 70.18,-66.76l-0.01 -0zm-631.48 0l360.06 0c38.75,0 70.17,29.9 70.17,66.77l-0.01 339.08c0.01,36.87 -31.41,66.76 -70.15,66.76l-360.07 -0c-38.74,0 -70.15,-29.89 -70.15,-66.76l-0.01 -339.09c0.01,-36.86 31.43,-66.76 70.17,-66.76l-0.01 -0zm1266.64 -604.37l360.06 0c38.74,0 70.16,29.9 70.16,66.76l0 339.08c0,36.87 -31.42,66.76 -70.16,66.76l-360.06 -0c-38.74,0 -70.17,-29.89 -70.17,-66.76l0 -339.09c0,-36.86 31.42,-66.76 70.17,-66.76l0 -0zm-631.47 0l360.06 0c38.74,0 70.17,29.9 70.17,66.76l0 339.08c0,36.87 -31.42,66.76 -70.17,66.76l-360.06 -0c-38.74,0 -70.15,-29.89 -70.15,-66.76l-0.01 -339.09c0.01,-36.86 31.43,-66.76 70.17,-66.76l-0.01 -0z"/>
   <path class="fil0" d="M975.46 2256.96c8.76,21.51 1.05,5.26 11.24,23.54 9.11,16.33 2.71,4.89 11.27,17.58l153.17 246.99c6.97,26.09 32.06,49.07 35.17,70.28l156.93 271.45c9.59,18.77 2.99,12.07 18.69,23.7 -6.99,20.88 -1.7,43.58 7.06,63.28 0.96,59.79 14.05,124.51 14.05,189.67 0,64.15 -8.59,107.87 26.07,142.58 35.68,35.72 83.32,26.12 149.62,26.11 117.14,-0.01 234.28,0 351.41,0l154.54 0 91.43 0c65.58,0 131.17,-0.08 196.74,0 81.09,0.09 117.09,4.16 147.58,-49.19 27.14,-47.5 6.23,-116.35 15.65,-181.13 6.15,-42.24 33.91,-111.34 47.6,-156.16 23.01,-51.75 33.65,-118 56.22,-168.73 9.18,-58.12 40.79,-128.04 42.16,-189.71 0.95,-1.5 1.87,-5.85 2.14,-4.88l28.17 -161.18c18.65,-119.53 11.85,-445.93 11.85,-578.87l0 -182.69c-10.38,-9.26 -7.44,-14.8 -13.09,-28.58 -8.22,-19.98 -9.51,-20.29 -22.04,-34.71 -17.03,-32.19 -42,-50.21 -74.82,-64.64 -1.54,-0.68 -3.37,-1.47 -4.95,-2.12 -1.61,-0.67 -3.4,-1.48 -5.07,-2.12 -1.69,-0.65 -3.43,-1.48 -5.18,-2.09 -20.19,-6.98 -21.36,-6.55 -50.38,-6.86 -95.12,-1.04 -100.7,27.57 -154.76,63.77 0,-31.39 -2.05,-42.43 -11.61,-65.66 -19.94,-48.39 -18.65,-38.5 -37.54,-46.78 -0.33,-13.47 4.89,-2.01 -5.71,-15.76 -6,-7.78 -8.86,-8.26 -15.1,-12.65 -9.57,-6.74 -21.13,-11.31 -28.45,-20.78 -99.45,-30.36 -178.52,-12.95 -224.85,56.22 -9.02,-16.99 -10.74,-27.87 -18.61,-44.66 -8.44,-18 -13.48,-30.65 -25.27,-44.97 -16.44,-19.98 -57.51,-45.01 -85.59,-54.97 -85.3,-30.24 -161.79,15.38 -200.82,60.28l0.09 -421.75c1.81,-257.41 -319.38,-264.11 -362.78,-52.49 -9.07,44.24 -2.74,1060.65 -2.74,1134.83 -17.07,-11.43 -29,-24.27 -44.04,-40.27 -33.81,-35.98 -10.76,-29.19 -47.29,-44.06 -0.52,-20.69 6.54,6.44 -3.42,-12 -0.95,-1.75 -10.59,-14.1 -11.12,-14.63 -17.7,-17.71 -12.52,-13.55 -34.65,-22.57 -0.33,-13.53 4.85,-1.98 -5.75,-15.69 -6.04,-7.82 -9.28,-8.36 -14.8,-12.58 -12.33,-9.44 -18,-14.8 -31.53,-25.09 -209.98,-159.5 -428.5,54.82 -229.06,334.43 5.94,11.35 31.97,50.88 42.16,56.29l-0.02 -0.02z"/>
  </g>
 </g>
 <g id="Layer_x0020_1_0">
  <metadata id="CorelCorpID_1Corel-Layer"/>
 </g>
</svg>
