<?xml version="1.0" encoding="UTF-8"?>
<!DOCTYPE svg PUBLIC "-//W3C//DTD SVG 1.1//EN" "http://www.w3.org/Graphics/SVG/1.1/DTD/svg11.dtd">
<!-- Creator: CorelDRAW 2019 (64-Bit) -->
<svg xmlns="http://www.w3.org/2000/svg" xml:space="preserve" width="3.33333in" height="3.33333in" version="1.1" style="shape-rendering:geometricPrecision; text-rendering:geometricPrecision; image-rendering:optimizeQuality; fill-rule:evenodd; clip-rule:evenodd"
viewBox="0 0 3333.33 3333.33"
 xmlns:xlink="http://www.w3.org/1999/xlink"
 xmlns:xodm="http://www.corel.com/coreldraw/odm/2003">
 <defs>
  <style type="text/css">
   <![CDATA[
    .fil0 {fill:#FEFEFE}
   ]]>
  </style>
 </defs>
 <g id="Layer_x0020_1">
  <metadata id="CorelCorpID_0Corel-Layer"/>
  <g id="_2175796234704">
   <g id="_2955518537648">
    <g>
     <path class="fil0" d="M183.88 561.43c0,-35.6 5.46,-54.84 17.19,-82.3 5.26,-12.3 10.37,-20 17.72,-30.52 4.97,-7.11 5.98,-7.48 10.7,-13.43 4.02,-5.07 5.98,-8.5 10.8,-13.32 16.09,-16.13 37.91,-28.29 58.1,-38.37 44.73,-22.32 111.46,-23.01 155.87,-2 78.69,37.22 118.53,96.39 118.53,185.96 0,63.69 -36.14,113.28 -83.48,148.65 -50.75,37.91 -132.75,45.61 -188.9,18.22 -69.02,-33.66 -116.51,-92.81 -116.51,-172.9l-0.02 0.01zm179.27 -292.43l31.23 0c39.34,2 78.21,11.58 113.11,29.12 153.13,76.96 210.85,260.91 125.78,402.17 -11.94,19.82 -22.22,35.64 -38.61,51.83l-34.09 32.23c-7.56,6.04 -5.9,1.07 -8.88,12.22 23.15,5.39 66.83,37.16 83.74,51.92 7.94,6.93 11.64,8.66 19.56,16.62 6.26,6.29 10.42,10.33 16.6,16.57 60.95,61.59 100.18,155.48 100.18,255.56l-96.47 0c0,-155.1 -128.62,-278.59 -289.59,-283.24l-63.77 8.26c-90.52,21.49 -159.02,75.94 -199.39,159.36 -13.02,26.91 -26.07,77.15 -26.07,115.61l-96.47 0c0,-92.39 33.21,-178.37 83.74,-235.83 29.02,-33 90.13,-92.46 130.31,-101.82l-32.72 -27.57c-79.86,-63.92 -114.93,-190.05 -82.96,-299.14 9.1,-31.04 23.05,-54.29 39.09,-78.48 17.72,-26.71 32.63,-40.95 56.4,-61.17 46.1,-39.22 107.14,-61.08 169.31,-64.23l-0.03 0.02z"/>
     <path class="fil0" d="M1067.89 561.43c0,-35.6 5.46,-54.84 17.19,-82.3 5.26,-12.3 10.37,-20 17.72,-30.52 4.97,-7.11 5.98,-7.48 10.7,-13.43 4.02,-5.07 5.99,-8.5 10.8,-13.32 16.09,-16.13 37.91,-28.29 58.1,-38.37 44.73,-22.32 111.46,-23.01 155.87,-2 78.69,37.22 118.53,96.39 118.53,185.96 0,63.69 -36.15,113.28 -83.49,148.65 -50.75,37.91 -132.75,45.61 -188.9,18.22 -69.02,-33.66 -116.51,-92.81 -116.51,-172.9l-0.01 0.01zm179.27 -292.43l31.23 0c39.34,2 78.21,11.58 113.1,29.12 153.13,76.96 210.85,260.91 125.78,402.17 -11.94,19.82 -22.22,35.64 -38.61,51.83l-34.09 32.23c-7.56,6.04 -5.9,1.07 -8.88,12.22 23.15,5.39 66.83,37.16 83.74,51.92 7.94,6.93 11.64,8.66 19.56,16.62 6.26,6.29 10.42,10.33 16.6,16.57 60.95,61.59 100.18,155.48 100.18,255.56l-96.47 0c0,-155.1 -128.62,-278.59 -289.59,-283.24l-63.77 8.26c-90.52,21.49 -159.02,75.94 -199.39,159.36 -13.02,26.91 -26.07,77.15 -26.07,115.61l-96.47 0c0,-92.39 33.21,-178.37 83.74,-235.83 29.02,-33 90.13,-92.46 130.31,-101.82l-32.72 -27.57c-79.86,-63.92 -114.93,-190.05 -82.96,-299.14 9.1,-31.04 23.05,-54.29 39.09,-78.48 17.72,-26.71 32.63,-40.95 56.4,-61.17 46.1,-39.22 107.14,-61.08 169.31,-64.23l-0.02 0.02z"/>
     <path class="fil0" d="M635.7 1473.91c0,-35.59 5.46,-54.84 17.19,-82.3 5.26,-12.3 10.37,-20 17.72,-30.52 4.97,-7.11 5.98,-7.48 10.7,-13.43 4.02,-5.07 5.98,-8.5 10.8,-13.32 16.09,-16.13 37.91,-28.29 58.1,-38.37 44.73,-22.32 111.46,-23.01 155.87,-2 78.69,37.22 118.53,96.39 118.53,185.96 0,63.69 -36.14,113.28 -83.48,148.65 -50.75,37.91 -132.75,45.61 -188.9,18.22 -69.02,-33.66 -116.51,-92.81 -116.51,-172.9l-0.02 0.01zm179.27 -292.43l31.23 0c39.34,2 78.21,11.58 113.1,29.12 153.13,76.96 210.85,260.91 125.78,402.17 -11.94,19.82 -22.22,35.64 -38.61,51.83l-34.09 32.23c-7.56,6.04 -5.9,1.07 -8.88,12.22 23.15,5.39 66.83,37.16 83.74,51.92 7.94,6.93 11.64,8.66 19.56,16.62 6.26,6.29 10.42,10.33 16.6,16.57 60.95,61.59 100.18,155.48 100.18,255.56l-96.47 0c0,-155.1 -128.62,-278.59 -289.59,-283.24l-63.77 8.27c-90.52,21.49 -159.02,75.94 -199.39,159.36 -13.02,26.91 -26.07,77.15 -26.07,115.62l-96.47 0c0,-92.39 33.21,-178.38 83.74,-235.83 29.02,-33 90.13,-92.46 130.31,-101.83l-32.72 -27.57c-79.86,-63.91 -114.93,-190.04 -82.96,-299.14 9.1,-31.04 23.05,-54.3 39.09,-78.48 17.72,-26.71 32.63,-40.95 56.4,-61.17 46.1,-39.22 107.14,-61.09 169.31,-64.23l-0.02 0.01z"/>
    </g>
    <path class="fil0" d="M2275.96 2028.69c0,-64.02 9.81,-98.64 30.92,-148.01 26.12,-61.08 68.21,-103.18 119.22,-141.06 89.73,-66.65 236.14,-81.85 336.15,-34.56 81.17,38.39 136.13,82.22 177.11,164.5 47.24,94.85 49.56,208.74 1.88,303.85 -25.23,50.33 -51.18,83.05 -91.2,114.84 -146.35,116.24 -325.49,105.35 -469.56,-17.06 -21.52,-18.28 -59.62,-73.79 -71.96,-101.56 -17.58,-39.56 -32.55,-83.86 -32.55,-140.96l-0.01 0.02zm1057.35 1035.66c0,-238.73 -124.8,-449.85 -310.11,-568.31 -21.3,-13.61 -60.66,-38.57 -85.72,-44.42 8.46,-31.69 115.57,-76.17 180.57,-242.37 45.09,-115.31 46.37,-243.98 4.49,-360.2 -121.67,-337.58 -537.51,-454.32 -819.56,-237.98 -209.59,160.76 -265.41,452.43 -129.79,677.65 11.05,18.35 29.51,48.06 44.48,63.97 43.72,46.45 47.25,52.17 97.78,92 5.98,4.71 10.17,8.39 14.75,12.36 -23.04,5.37 -57.56,29.26 -77.01,42.28 -185.52,124.17 -307.97,318.7 -307.97,565.02l173.51 0c0,-144.7 62.75,-265.96 155.89,-359.23 89.02,-89.13 239.98,-153.8 364.34,-150.21 17.74,0.51 28.6,4.44 54.54,5.16 41.68,1.15 121.56,23.79 155.5,39.7 182.16,85.39 310.81,257.41 310.81,464.58l173.52 0 -0.02 0z"/>
    <path class="fil0" d="M1945.2 651.41c4.08,17.52 9.63,23.64 16.16,38.06 6.74,14.87 10.11,25.55 18.15,41.49 13.76,27.28 22.67,52.17 36.17,77.7 40.06,-3.33 61.17,-43.38 206.05,-43.38 134.89,0 276.57,120.85 341.37,227.98 17.92,29.63 53.5,97.58 54.46,140.74l-238.26 -60.92c-4.77,54.71 -38.28,120.02 -38.28,174.78 30.98,0.69 98.64,21.95 132.31,30.36 46.24,11.56 86.61,23.02 129.06,33.61l259.18 66.16 98.7 -389.31c4.99,-19.95 10.06,-42.37 16.28,-65.05 5.97,-21.74 15.16,-41.55 15.16,-71.6 -56.51,-13.17 -110.83,-30.04 -168.09,-43.38 -9.05,38.85 -48.19,178.56 -48.8,206.05l-10.85 0c-4.05,-48.66 -57.42,-129.66 -81.29,-162.71 -93.96,-130.14 -289.17,-265.65 -471.78,-265.65 -97.94,0 -201.75,31.24 -265.69,65.07l-0.02 0z"/>
    <path class="fil0" d="M730.61 2234.72c0,84.04 26.51,176.8 54.1,233.28 27.41,56.09 83.29,126.36 130.21,162.59 28.86,22.29 51.09,41.11 85.06,61.35 122.91,73.22 219.8,101.27 375.89,101.27 18.69,0 21,-4.01 37.96,-5.42l-168.09 140.98c22.2,33.16 79.78,92.74 108.45,135.56l417.52 -341.61c-6.03,-22.59 -144.26,-180.97 -168.06,-211.51 -23.33,-29.94 -154.12,-193 -173.55,-206.01 -9.85,6.59 -22.75,17.75 -33.3,26.34l-96.83 82.11c5.62,21.06 110.95,140.33 132.1,166.13 12.21,14.89 12.43,6.59 14.3,29.07l-124.71 5.43c-143.68,0 -324.48,-103.06 -384.99,-238.58 -19.82,-44.4 -32.53,-127.69 -32.53,-178.94l-173.52 0 0 37.96 -0 0z"/>
   </g>
  </g>
 </g>
 <g id="Layer_x0020_1_0">
  <metadata id="CorelCorpID_1Corel-Layer"/>
 </g>
</svg>
