<?xml version="1.0" encoding="UTF-8"?>
<!DOCTYPE svg PUBLIC "-//W3C//DTD SVG 1.1//EN" "http://www.w3.org/Graphics/SVG/1.1/DTD/svg11.dtd">
<!-- Creator: CorelDRAW 2019 (64-Bit) -->
<svg xmlns="http://www.w3.org/2000/svg" xml:space="preserve" width="3.33333in" height="3.33333in" version="1.1" style="shape-rendering:geometricPrecision; text-rendering:geometricPrecision; image-rendering:optimizeQuality; fill-rule:evenodd; clip-rule:evenodd"
viewBox="0 0 3333.33 3333.33"
 xmlns:xlink="http://www.w3.org/1999/xlink"
 xmlns:xodm="http://www.corel.com/coreldraw/odm/2003">
 <defs>
  <style type="text/css">
   <![CDATA[
    .fil0 {fill:white}
   ]]>
  </style>
 </defs>
 <g id="Layer_x0020_1">
  <metadata id="CorelCorpID_0Corel-Layer"/>
  <g id="_2044580948944">
   <path class="fil0" d="M2777.76 2401.98l-141.49 -84.77c-43.13,-25.8 -92.47,-39.41 -142.74,-39.44l-212.94 0c-43.59,-0.08 -87,5.54 -129.15,16.65l-641.59 172.23c-70.15,19.37 -126.49,71.61 -151.07,140.11l-564.33 -305.31c-45.76,-26.04 -99.34,-34.88 -151.04,-24.95 -19.5,3.44 -38.41,9.65 -56.18,18.44 -40.12,19.2 -73.41,50.24 -95.43,88.89 -19.26,33.66 -29.37,71.78 -29.37,110.54 -0.6,79.15 41.34,152.5 109.81,192.16l1011.43 605.16c43.94,27.21 94.56,41.61 146.24,41.61l782.76 0c34.96,0.03 69.61,-6.59 102.1,-19.45l163 -64.37 0 83.82 555.55 0 0 -1111.09 -555.55 0 0 179.77zm-203.83 808.55c-19.45,7.68 -40.2,11.64 -61.12,11.67l-782.92 0c-31.31,-0.03 -61.98,-8.84 -88.52,-25.44l-1012.81 -605.87c-34.42,-19.88 -55.5,-56.72 -55.23,-96.46 0.08,-19.48 5.21,-38.63 14.89,-55.56 11.07,-19.18 27.72,-34.56 47.72,-44.05 8.81,-4.29 18.15,-7.33 27.78,-9.01 7.03,-1.3 14.16,-1.98 21.3,-1.98 19.1,-0.06 37.87,4.94 54.44,14.43l611.94 330.67c0.7,3.39 0.7,6.73 1.6,10.12 26.31,96.98 114.29,164.33 214.79,164.44 30.93,-2.82 61.55,-8.3 91.55,-16.33l577.2 -154.46 -28.65 -107.34 -575.32 153.78c-25.33,5.83 -58.02,12.5 -64.78,13.07 -50.19,0.08 -94.18,-33.45 -107.39,-81.84 -1.79,-6.73 -2.85,-13.62 -3.23,-20.56 0,0 -0.43,-13.46 0,-18.18 4.23,-46.47 36.78,-85.48 81.73,-97.98l641.32 -171.57c32.74,-8.76 66.49,-13.21 100.37,-13.21l212.94 0c30.17,0 59.76,8.19 85.61,23.68l198.62 118.92 0 598.49 -203.83 80.56zm314.93 -877.21l333.33 0 0 888.87 -333.33 0 0 -888.87zm0 0z"/>
   <path class="fil0" d="M2291.33 444.46l-298.01 -297.98c-93.56,-94.1 -220.86,-146.83 -353.54,-146.45l-698.44 -0c-43.1,0.06 -85.61,10.12 -124.21,29.33l-124.51 62.28c-24.96,12.56 -52.68,18.56 -80.59,17.44l-56.45 -1.98 0 -107.07 -555.55 -0 0 1222.2 555.55 0 0 -166.67 94.45 0 33.61 22.22c94.05,62.44 203.56,97.71 316.37,101.83l0 709.27 2333.3 0 0 -1444.42 -1041.98 0zm-1846.87 666.66l-333.33 0 0 -999.99 333.33 0 0 999.98zm300.67 -125.78l-61.8 -40.88 -127.76 0 0 -726.2 52.38 1.87c46.52,1.66 92.69,-8.35 134.33,-29.11l124.4 -62.28c23.17,-11.58 48.74,-17.61 74.65,-17.61l698.45 0c103.19,-0.3 202.23,40.71 274.98,113.87l219.45 219.45 -458.44 0 -134.85 -134.82 -78.53 78.53 392.44 392.46c43.59,43.4 43.72,113.93 0.32,157.55 -43.43,43.59 -113.96,43.73 -157.55,0.33l-327.77 -327.77 -38.9 33.34c-107.39,91.2 -264.37,93.53 -374.45,5.53l-32.2 -26.09 -70.01 86.31 32.55 26.39c34.04,27.21 72.26,48.74 113.17,63.78l0 268.44c-90.93,-4.04 -179.06,-32.77 -254.88,-83.11l-0 0zm790.27 -52l83.82 83.85c87.02,85.72 226.72,85.86 313.88,0.27 -81.54,126.28 -49.37,294.32 73.06,381.54 122.42,87.21 291.77,62.71 384.46,-55.58 92.69,-118.33 75.95,-288.63 -38.03,-386.61 -113.96,-97.98 -284.85,-89 -387.91,20.37 37.95,-59.6 44.73,-133.87 18.2,-199.38l743.94 0c23.9,139.78 133.38,249.26 273.16,273.16l0 231.44c-139.78,23.9 -249.26,133.38 -273.16,273.16l-1120.31 0c-23.9,-139.78 -133.38,-249.26 -273.16,-273.16l0 -231.44c79.4,-13.37 151.2,-55.17 202.06,-117.62zm464.59 233.34c0,-92.04 74.63,-166.67 166.67,-166.67 92.04,0 166.67,74.63 166.67,166.67 0,92.04 -74.63,166.67 -166.67,166.67 -92.04,0 -166.67,-74.63 -166.67,-166.67zm1222.2 611.1l-2111.08 0 0 -954.5c88.08,6.62 175.89,-15.84 250,-63.88l94.78 94.78c-41.69,56.64 -107.77,90.14 -178.11,90.28l-55.56 0 0 444.44 55.56 -0c122.72,0 222.22,99.5 222.22,222.22l0 55.56 1333.31 0 0 -55.56c0,-122.72 99.5,-222.22 222.22,-222.22l55.56 0 0 -444.44 -55.56 0c-122.72,0 -222.22,-99.5 -222.22,-222.22l0 -55.55 -935.32 0 -111.11 -111.11 1435.31 0 0 1222.2zm0 0z"/>
  </g>
 </g>
</svg>
