<?xml version="1.0" encoding="UTF-8"?>
<!DOCTYPE svg PUBLIC "-//W3C//DTD SVG 1.1//EN" "http://www.w3.org/Graphics/SVG/1.1/DTD/svg11.dtd">
<!-- Creator: CorelDRAW 2019 (64-Bit) -->
<svg xmlns="http://www.w3.org/2000/svg" xml:space="preserve" width="3.33333in" height="3.33333in" version="1.1" style="shape-rendering:geometricPrecision; text-rendering:geometricPrecision; image-rendering:optimizeQuality; fill-rule:evenodd; clip-rule:evenodd"
viewBox="0 0 3333.33 3333.33"
 xmlns:xlink="http://www.w3.org/1999/xlink"
 xmlns:xodm="http://www.corel.com/coreldraw/odm/2003">
 <defs>
  <style type="text/css">
   <![CDATA[
    .fil1 {fill:#FEFEFE}
    .fil0 {fill:#373435}
   ]]>
  </style>
 </defs>
 <g id="Layer_x0020_1">
  <metadata id="CorelCorpID_0Corel-Layer"/>
  <line class="fil0" x1="151269.25" y1="-14508.62" x2="1666.67" y2= "1666.67" />
  <line class="fil0" x1="150950.05" y1="-14173.71" x2="1666.67" y2= "1666.67" />
  <g id="_2135262973520">
   <g id="_2135283143888">
    <path class="fil1" d="M1316.38 2246.06c-5.5,-60.41 98.79,-78.14 102.49,-4.59 3.37,66.87 -97,64.9 -102.49,4.59zm546.87 1087.24l-1530.61 0c-49.49,-1.05 -86.57,-10.66 -117.54,-43.18 -0.98,-1.03 -2.29,-2.43 -3.26,-3.49 -62.5,-68.14 -41.3,-169.9 -41.3,-278.89 0,-169.3 0,-338.59 0,-507.89 0,-148.67 5.84,-249.88 69.39,-373.14 134.91,-261.66 367.28,-407.98 666.25,-407.98 0.25,0 77.91,50.74 91.03,59.03l65.62 32.94c53.98,28.81 164.22,55.06 227.97,57.82 32.04,1.39 35.27,7.42 65.34,6.7l140.33 -16.02c42.93,-8.36 76.5,-17.89 115.8,-33.38 68.68,-27.07 96.05,-41.8 153.22,-81.07 68.65,-47.17 91.33,-19.52 169.36,-19.52 -5.95,22.29 -76.27,101.76 -95.61,125.75l-394.17 484.67c-34.85,42.28 -65.33,78.76 -99.92,122.51 -93.37,118.09 -214.71,214.88 -154.93,330.57 4.62,8.93 10.79,18.64 15.44,24.91 0.87,1.17 2.03,2.69 2.93,3.81 24.03,30.17 94.17,77.96 131.96,108.07l32.89 26.18c3.98,3.09 5.99,4.59 10.73,8.06l390.46 299.9c27.21,21.16 72.7,49.89 88.6,73.64l0.02 -0zm-494.79 -1347.66c26.16,0 38.33,8.17 46.04,26.74 12.39,29.84 -0.7,70.92 -46.04,70.92 -67.17,0 -67.3,-97.66 0,-97.66z"/>
    <path class="fil1" d="M847.63 1178.37l1035.15 0c0,67.63 -21.65,136.87 -47.69,193.19l-32.95 59.21c-42.85,63.96 -105.23,125.98 -172.5,164.66 -112.19,64.5 -270.96,93.22 -395.24,56.61 -1.6,-0.47 -3.33,-1.01 -4.9,-1.52l-191.21 -101.84c-47.13,-38.65 -54.74,-45.74 -93.06,-96.7 -17.84,-23.74 -31.39,-50 -45.63,-78.2 -46.48,-92.05 -41.7,-172.4 -51.97,-195.38l-0 -0.02zm-305.99 -781.25c24.38,-2.03 75.05,-26.11 100.43,-36.28l194.41 -79.04c36.24,-14.5 68.47,-26.98 102.95,-40.93 113.41,-45.89 306.98,-136.72 422.52,-136.72 131.37,0 276.82,75.1 403.28,124.58 9.75,3.81 16.75,7.47 26.5,12.14l205.27 81.85c37.21,14.36 63.41,27.91 101.74,41.74 21.58,7.79 76.73,23.86 96.55,45.68 -24.43,2.08 -116.8,40.02 -148.87,53.02 -7.6,3.08 -12.84,5.42 -22.78,9.33l-230.03 88.35c-14.64,5.4 -31.52,12.41 -46.7,18.63l-23.85 8.88c-74.98,25.78 -162.67,67.78 -233.74,85.94 -151.72,38.76 -230.83,4.22 -347.4,-37.31l-427.07 -164.54c-39.27,-16.02 -158.32,-55 -173.21,-75.33l0 0zm-182.29 6.51c0,15.58 10.84,28 23.82,41.66l9.81 9.31c8.13,9.45 11.94,3.35 11.94,20.64l0 253.91c0,38.14 -59.97,8.08 -95.59,113.33 -37.65,111.24 58.48,205.93 147.6,205.93 120.36,0 204.71,-146.46 124.09,-254.51 -22.12,-29.65 -36.53,-33.6 -71.93,-51.73l0 -234.37 182.29 71.61c0,50.54 -10.77,503.68 8.46,539.6 0.13,0.24 7.79,11.47 7.89,11.6 16.14,22.19 17.02,23.23 35.73,28.23 0,56.53 3.1,98.83 13.33,143.84l66.96 166.48c7.79,13.91 8.2,12.95 15.52,24.6l137.68 155.2c0.17,0.12 8.58,6.61 10.77,8.33l70.37 47.2c68.74,41.1 152.33,71.64 232.69,78.83 14.13,1.26 22.51,1.5 36.34,3.33 200.2,26.45 432.22,-94.76 553.92,-264.96 73.16,-102.31 112.41,-225.61 112.41,-362.85 72.52,-19.37 52.08,-156.8 52.08,-260.46 0,-104.16 0,-208.32 0,-312.48 28.43,-24.93 131.37,-57.65 169.11,-72.52 49.89,-19.67 231.52,-74.37 133.09,-157.3l-515.13 -213.71c-1.41,-0.58 -3.13,-1.3 -4.52,-1.9 -116.88,-50.1 -310.39,-140.47 -427.07,-140.47 -198.42,0 -188.93,16.48 -336.48,73.49 -42.97,16.6 -78.72,30.9 -120.93,48.34 -22.29,9.2 -37.75,14.37 -60.37,24.15l-430.52 175.2c-30.28,13.07 -93.36,43.14 -93.36,82.47l0 -0.02z"/>
    <path class="fil1" d="M2058.57 3203.09l-388.75 -293.65c-1.06,-0.75 -9.09,-6.55 -11.17,-8.12l-121.74 -94.46c-12.01,-9.97 -23.5,-20.5 -39.07,-31.61l-77.3 -66.94c56.72,-65.25 109.27,-130.83 164.81,-199.78l499.26 -607.52 96.69 73.64c8.44,6.7 12.43,10.46 21.48,17.57l59.11 44.99c1.11,0.81 2.71,1.91 3.8,2.73l228.4 175.43c1.02,0.79 2.52,2 3.53,2.8l225 171.13c-19.53,36.92 -88.3,111.2 -120.95,152.49 -14.59,18.44 -25.64,33.96 -40.36,50.78l-457.14 558.49c-8.53,10.96 -36.19,45.13 -45.61,52.04l0 -0zm27.24 130.21l-23.72 0c-14.02,-3.67 -28.15,-13.08 -43.17,-24.07l-202.07 -156.19c-0.98,-0.83 -2.44,-2.09 -3.44,-2.92l-148.26 -112.35c-19.59,-14.24 -34.59,-26.75 -51.93,-40.29l-221.38 -169.22c-144.3,-113.85 -124.42,-90.83 -10.39,-237.19l96.24 -118.6c18.8,-21.5 31.62,-37.64 49.84,-60.84l294.98 -362.56c17.15,-19.21 30.61,-37.94 46.4,-57.77l146.02 -179.5c77.69,-98.09 119.03,16.18 232.43,76.19l94.86 -119.98c29.15,-31.64 56.01,-26.36 87.58,-2.99l441.06 340.33c10.65,8.28 18.19,13.47 29.6,21.57 9.75,6.93 19.89,14.74 29.61,23.6l139.5 107.88c1.12,0.88 2.62,2.06 3.74,2.92l11.17 8.37c1.05,0.79 2.61,1.93 3.64,2.72l7.11 5.5c33.83,26.15 91.2,50.98 63.86,104.74 -18.59,36.57 -322.13,396.2 -381.55,471.64 -63.82,81.03 -124.98,153.57 -189.56,233.68 -236.26,293.06 -154.46,255.06 -373.15,108.63 -27.01,18.09 -47.27,48.81 -67.94,75.29l-31.35 40.27c-10.22,11.74 -20.04,18.35 -29.72,21.16l-0.01 -0.03zm246.19 -1373.73c14,-34.41 36.67,-43.16 58.59,-84.6 23.99,10.5 60.16,42 80,57.72l360.95 276.33c6.38,4.96 17.02,13.35 18.87,14.76l184.72 139.46 -664.06 813.8c-27.06,-14.32 -77.61,-51.39 -91.15,-71.61l377.65 -462.2c20.31,-26.07 39.89,-47.8 61.39,-75.33l93.33 -115c8.25,-10.06 25.25,-29.51 31.75,-40.09 28.8,-46.85 -8.52,-70.39 -35.94,-89.37l-91.08 -70.58c-1.04,-0.79 -2.59,-1.93 -3.64,-2.72 -5.72,-4.33 -6.82,-5 -11.17,-8.37l-51.55 -40.4c-27.2,-22.94 -55.56,-41.45 -77.88,-58.45l-39.47 -32.78c-8.13,-5.83 -11.41,-8.28 -19.07,-13.69 -4.28,-3.03 -6.28,-4.33 -11.12,-7.7 -1.06,-0.74 -2.65,-1.83 -3.72,-2.57l-14.9 -10.72c-34.74,-27.45 -117.95,-100.31 -152.49,-115.9l-0.01 0.01z"/>
    <path class="fil1" d="M1902.31 2539.03c-21.4,5.71 -91.15,74.22 -91.15,91.15 0,104.01 106.77,49.1 141.02,94.48 9.41,12.47 22.99,60.44 30.54,79.89 12.75,32.85 32.91,33.96 75.85,33.96 16.8,-25.09 59.58,-72.13 71.61,-117.19 57.77,0 149.74,-3.7 149.74,-65.11 0,-32.08 -18.53,-38.79 -32.55,-57.39l-45.58 -46.77c8.47,-36.37 65.39,-175.78 -26.04,-175.78l-60.78 23.95c-19.38,8.16 -39.3,19.08 -56.41,28.13 -32.43,-26.87 -110.82,-88.55 -147.45,-43.28 -24.39,30.15 -8.8,76.89 -8.8,153.96l-0 0z"/>
   </g>
  </g>
 </g>
 <g id="Layer_x0020_1_0">
  <metadata id="CorelCorpID_1Corel-Layer"/>
 </g>
</svg>
