<?xml version="1.0" encoding="UTF-8"?>
<!DOCTYPE svg PUBLIC "-//W3C//DTD SVG 1.1//EN" "http://www.w3.org/Graphics/SVG/1.1/DTD/svg11.dtd">
<!-- Creator: CorelDRAW 2019 (64-Bit) -->
<svg xmlns="http://www.w3.org/2000/svg" xml:space="preserve" width="3.33333in" height="3.33333in" version="1.1" style="shape-rendering:geometricPrecision; text-rendering:geometricPrecision; image-rendering:optimizeQuality; fill-rule:evenodd; clip-rule:evenodd"
viewBox="0 0 3333.33 3333.33"
 xmlns:xlink="http://www.w3.org/1999/xlink"
 xmlns:xodm="http://www.corel.com/coreldraw/odm/2003">
 <defs>
  <style type="text/css">
   <![CDATA[
    .fil0 {fill:#FEFEFE}
   ]]>
  </style>
 </defs>
 <g id="Layer_x0020_1">
  <metadata id="CorelCorpID_0Corel-Layer"/>
  <g id="_2172959776304">
   <g id="_2135353631536">
    <path class="fil0" d="M690.1 3079.5c23.53,1.96 57.63,14.65 82.37,21.8 29.56,8.55 55.37,15.95 81.68,22.49 301.85,75.01 596.47,99.51 907.42,37.59 28.5,-5.67 276.19,-65.85 276.19,-107.93 0,-144.55 12.31,-430.14 -28.33,-551.1 -67.4,-200.61 -257.88,-347.33 -472.98,-347.33l-358.07 0c-197.3,0 -364.15,137.79 -432.01,271.11 -48.24,94.8 -56.27,156.67 -56.27,295.29 0,119.36 0,238.71 0,358.07l0 0.01z"/>
    <path class="fil0" d="M-0 2233.14l0 423.18c0,26.6 85.5,37.81 130.98,51.3 49.88,14.8 92.79,23.16 147.37,34.93 66.85,14.41 249.12,43.98 320.6,43.98 0,-199.57 -2.59,-330.77 129.31,-495.69 55.06,-68.84 125.49,-126.39 204.83,-166.27 29.3,-14.73 61.84,-21.6 89.04,-34.65 -9.43,-35.32 -143.23,-127.14 -143.23,-338.54 -33.01,0 -35.47,-6.51 -71.61,-6.51 -142.95,0 -340.85,-10.88 -464.8,30 -190.14,62.71 -342.49,253.98 -342.49,458.28l-0 -0.01z"/>
    <path class="fil0" d="M1699.22 2089.92c58.49,13.63 119.05,49.05 162.79,78.1 96.48,64.08 172.81,155.59 216.7,265.06 54.71,136.45 43.69,209.05 43.69,353.45 149.58,0 366.82,-36.69 503.21,-95.75 24.01,-10.4 37.54,-21.97 63.2,-27.95 0,-148.87 13.27,-395.01 -18.15,-528.73 -44.76,-190.47 -193.48,-333.89 -392.38,-375.85 -107.8,-22.74 -298.15,-13.39 -429.32,-13.39 -18.01,216.41 -79.44,240.07 -149.74,345.05l0 0.01z"/>
    <path class="fil0" d="M2350.26 1692.78c14.54,6.98 25.39,8.74 42.91,15.68l118.57 63.72c148.46,99.12 261.7,278.31 261.7,480.49l0 136.72c162.55,0 368.41,-34.39 512.21,-99.77 17.29,-7.86 47.68,-17 47.68,-36.95l0 -416.67c0,-248.93 -237.28,-481.77 -468.75,-481.77l-371.09 0c0,203.09 -112.78,281 -143.23,338.54l-0 0.01z"/>
    <path class="fil0" d="M911.46 566.48c0,136.87 60.79,237.74 151.27,323.99 132.02,125.85 355.96,139.5 518.22,33 12.03,-7.89 17.8,-13.63 29.19,-22.89 320.54,-260.6 124.19,-763.78 -262.48,-763.78 -138.86,0 -233.67,55.58 -305.33,124.35 -0.96,0.93 -2.36,2.27 -3.3,3.21 -0.94,0.94 -2.28,2.33 -3.21,3.3 -76.38,79.59 -124.35,181.37 -124.35,298.82l-0.01 0z"/>
    <path class="fil0" d="M1341.15 2128.98c134.6,0 215.89,-30.43 304.43,-118.74 249.66,-249.01 50.05,-669.02 -265.37,-669.02 -110.3,0 -232.4,35.33 -303.33,119.85 -62.82,74.86 -107.62,145.15 -110.62,271.6 -2.89,121.96 50.62,203.46 106.88,273.69 19.44,24.27 82.29,68.75 111.55,83.77 34.78,17.85 103.46,38.85 156.46,38.85l-0 0z"/>
    <path class="fil0" d="M664.06 1725.33c63.85,0 115.45,-14.5 161.94,-33.37 84.68,-34.37 48.98,-37.91 77.96,-117.35 24.41,-66.91 64.9,-131.61 113.22,-179.76 35.18,-35.06 50.52,-35.1 50.52,-53.64 0,-424.74 -541.41,-549.98 -735.46,-214.63 -108.76,187.94 -50.3,414.28 107.7,523.39 54.99,37.97 134.73,75.36 224.11,75.36l0.01 0z"/>
    <path class="fil0" d="M2265.63 931.06c60.47,16.15 155.51,136.73 186.13,204.48 24.98,55.26 40.5,144.65 44.62,150.69 20.35,29.81 130.6,41.96 179.4,41.96 317.3,0 514.36,-408.11 278.41,-662.52 -245.57,-264.8 -688.56,-87.1 -688.56,265.39z"/>
    <path class="fil0" d="M1621.09 1302.16c0,57.79 85.47,41.4 180.21,229.95 72.57,144.43 -7.21,149.49 113.94,179.04 195.89,47.76 369.41,-41.07 454.67,-213.56 98.64,-199.56 3.64,-430.65 -184.46,-525.41 -247.25,-124.56 -564.35,63.91 -564.35,329.98l-0.01 0z"/>
    <path class="fil0" d="M1132.81 1302.16c24.88,-2.07 23.64,-6.07 43.75,-14.85 89.64,-39.1 194.73,-47.74 291,-26.93 32.3,6.98 52.04,19.76 81.92,22.25 1.02,-46.08 16.31,-102.37 30.59,-138.68 8.8,-22.37 14.48,-38.66 25.87,-58.76 12.23,-21.57 22.15,-30.6 28.17,-56.46 -41.3,0 -54.36,-6.51 -97.66,-6.51 -73.19,0 -397.18,-3.81 -446.12,3.29 -26.13,3.79 -36.77,-1.66 -38.31,14.73l40.88 73.97c13.2,32.44 19.1,43.28 28.28,82.41 8.86,37.78 11.63,55.01 11.63,105.55l0 -0z"/>
   </g>
  </g>
 </g>
 <g id="Layer_x0020_1_0">
  <metadata id="CorelCorpID_1Corel-Layer"/>
 </g>
</svg>
