<?xml version="1.0" encoding="UTF-8"?>
<!DOCTYPE svg PUBLIC "-//W3C//DTD SVG 1.1//EN" "http://www.w3.org/Graphics/SVG/1.1/DTD/svg11.dtd">
<!-- Creator: CorelDRAW 2019 (64-Bit) -->
<svg xmlns="http://www.w3.org/2000/svg" xml:space="preserve" width="3.33333in" height="3.33333in" version="1.1" style="shape-rendering:geometricPrecision; text-rendering:geometricPrecision; image-rendering:optimizeQuality; fill-rule:evenodd; clip-rule:evenodd"
viewBox="0 0 3333.33 3333.33"
 xmlns:xlink="http://www.w3.org/1999/xlink"
 xmlns:xodm="http://www.corel.com/coreldraw/odm/2003"
 enable-background="new 0 0 297 297">
 <defs>
  <style type="text/css">
   <![CDATA[
    .fil0 {fill:none}
    .fil2 {fill:#00A859}
    .fil1 {fill:black}
   ]]>
  </style>
 </defs>
 <g id="Layer_x0020_1">
  <metadata id="CorelCorpID_0Corel-Layer"/>
  <line class="fil0" x1="73927.92" y1="-6721.48" x2="-75674.62" y2= "9453.81" />
  <line class="fil0" x1="73608.72" y1="-6386.57" x2="-75674.62" y2= "9453.81" />
  <line class="fil0" x1="80405.37" y1="-5086.56" x2="-69197.16" y2= "11088.73" />
  <line class="fil0" x1="80086.17" y1="-4751.65" x2="-69197.16" y2= "11088.73" />
  <g id="_1504106190368">
   <g>
    <path class="fil1" d="M1666.77 1315.56c362.7,0 657.78,-295.07 657.78,-657.78 0,-362.7 -295.07,-657.78 -657.78,-657.78 -362.7,0 -657.78,295.07 -657.78,657.78 0,362.7 295.07,657.78 657.78,657.78z"/>
    <path class="fil1" d="M2549.41 1634.32c-0.28,-0.09 -0.82,-0.29 -1.1,-0.36 -85.65,-20.92 -347.91,-57.61 -347.91,-57.61 -29.61,-9.11 -61.24,6.57 -71.9,35.78l-394.77 1083.15c-22.77,62.48 -111.15,62.48 -133.92,0l-394.77 -1083.15c-8.6,-23.59 -30.87,-38.38 -54.72,-38.38 -5.66,0 -275.32,37.81 -365.09,60.13 -245.32,61 -400.06,302.23 -400.06,553.64l0 901.26c0,135.06 109.5,244.56 244.56,244.56l2073.87 0c135.06,0 244.56,-109.5 244.56,-244.56l0 -904.25c-0.01,-250.31 -160.81,-472.46 -398.74,-550.2l0 -0z"/>
    <path class="fil1" d="M1815.64 1555.7c-15.76,-17.17 -38.79,-25.8 -62.09,-25.8l-173.79 0c-23.3,0 -46.34,8.64 -62.09,25.8 -24.39,26.58 -27.93,64.97 -10.62,94.97l92.91 140.06 -43.49 366.89 85.65 227.83c8.35,22.92 40.75,22.92 49.1,0l85.65 -227.83 -43.49 -366.89 92.91 -140.06c17.3,-30 13.75,-68.39 -10.64,-94.97z"/>
   </g>
  </g>
  <path class="fil2" d="M1446.56 2928.17c-74.61,-0.29 -145.99,-30.13 -198.5,-83.07l-422.31 -422.31c-109.95,-109.95 -109.95,-288.46 0,-398.39 109.95,-109.93 288.46,-109.95 398.39,0l237.91 237.91 786.94 -674.32c129.09,-86.71 304.07,-52.22 390.65,76.87 71.94,107.28 61.8,249.59 -24.62,345.47l-985.44 844.66c-50.26,45.62 -115.15,71.66 -183,73.2l-0.01 -0.02z"/>
 </g>
</svg>
